[
    {
        "nombre":"Lista general",
        "redirect":"/pages/listageneral"
    },
    {
        "nombre":"Lista personal",
        "redirect":"/pages/listapersonal"
    },
    {
        "nombre":"Lista cuadricula",
        "redirect":"/pages/listagrid"
    }
]